{"entries":[{"id":"45253","term":"Сибгьо.","detectedLanguage":"Juhuri","pronunciationGuide":null,"partOfSpeech":null,"russian":"Opex.","source":"מאגר","status":"active","contributorName":null,"translations":[{"id":11679,"dialect":"לא ידוע","hebrew":"","latin":"","cyrillic":"Сибгьо."}],"definitions":[]}],"total":46218,"page":920,"limit":1,"totalPages":46218}